Tidy Evaluations – Club de lectura de Mastering Shiny: Evaluación tidy
…
¿Qué es?

Sintaxis que permite referirse directamente a las variables de un df como si fueran objetos en el entorno global, sin necesidad de usar el operador $ ni comillas.

¿Dónde se usa?

En funciones como filter(), mutate(), summarise(), etc.

Filtrar con tidyverse

min <- 1 # Variable de entorno
diamonds %>% 
  filter(carat > min) # carat: variable de datos

# A tibble: 17,502 × 10
   carat cut       color clarity depth table price     x     y     z
   <dbl> <ord>     <ord> <ord>   <dbl> <dbl> <int> <dbl> <dbl> <dbl>
 1  1.17 Very Good J     I1       60.2    61  2774  6.83  6.9   4.13
 2  1.01 Premium   F     I1       61.8    60  2781  6.39  6.36  3.94
 3  1.01 Fair      E     I1       64.5    58  2788  6.29  6.21  4.03
 4  1.01 Premium   H     SI2      62.7    59  2788  6.31  6.22  3.93
 5  1.05 Very Good J     SI2      63.2    56  2789  6.49  6.45  4.09
 6  1.05 Fair      J     SI2      65.8    59  2789  6.41  6.27  4.18
 7  1.01 Fair      E     SI2      67.4    60  2797  6.19  6.05  4.13
 8  1.04 Premium   G     I1       62.2    58  2801  6.46  6.41  4   
 9  1.2  Fair      F     I1       64.6    56  2809  6.73  6.66  4.33
10  1.02 Premium   G     I1       60.3    58  2815  6.55  6.5   3.94
# ℹ 17,492 more rows

Dentro de funciones con data-masking se puede usar .data o .env para explicitar del tipo de variable que se trata.

diamonds %>% 
  filter(.data$carat > .env$min)

# A tibble: 17,502 × 10
   carat cut       color clarity depth table price     x     y     z
   <dbl> <ord>     <ord> <ord>   <dbl> <dbl> <int> <dbl> <dbl> <dbl>
 1  1.17 Very Good J     I1       60.2    61  2774  6.83  6.9   4.13
 2  1.01 Premium   F     I1       61.8    60  2781  6.39  6.36  3.94
 3  1.01 Fair      E     I1       64.5    58  2788  6.29  6.21  4.03
 4  1.01 Premium   H     SI2      62.7    59  2788  6.31  6.22  3.93
 5  1.05 Very Good J     SI2      63.2    56  2789  6.49  6.45  4.09
 6  1.05 Fair      J     SI2      65.8    59  2789  6.41  6.27  4.18
 7  1.01 Fair      E     SI2      67.4    60  2797  6.19  6.05  4.13
 8  1.04 Premium   G     I1       62.2    58  2801  6.46  6.41  4   
 9  1.2  Fair      F     I1       64.6    56  2809  6.73  6.66  4.33
10  1.02 Premium   G     I1       60.3    58  2815  6.55  6.5   3.94
# ℹ 17,492 more rows

.data y .env pueden combinarse con $ y [[]]

diamonds %>% 
  filter(.data[["carat"]] > .env$min)

# A tibble: 17,502 × 10
   carat cut       color clarity depth table price     x     y     z
   <dbl> <ord>     <ord> <ord>   <dbl> <dbl> <int> <dbl> <dbl> <dbl>
 1  1.17 Very Good J     I1       60.2    61  2774  6.83  6.9   4.13
 2  1.01 Premium   F     I1       61.8    60  2781  6.39  6.36  3.94
 3  1.01 Fair      E     I1       64.5    58  2788  6.29  6.21  4.03
 4  1.01 Premium   H     SI2      62.7    59  2788  6.31  6.22  3.93
 5  1.05 Very Good J     SI2      63.2    56  2789  6.49  6.45  4.09
 6  1.05 Fair      J     SI2      65.8    59  2789  6.41  6.27  4.18
 7  1.01 Fair      E     SI2      67.4    60  2797  6.19  6.05  4.13
 8  1.04 Premium   G     I1       62.2    58  2801  6.46  6.41  4   
 9  1.2  Fair      F     I1       64.6    56  2809  6.73  6.66  4.33
10  1.02 Premium   G     I1       60.3    58  2815  6.55  6.5   3.94
# ℹ 17,492 more rows
…
